%YAML 1.1
%TAG !u! tag:unity3d.com,2011:
--- !u!1045 &1
EditorBuildSettings:
  m_ObjectHideFlags: 0
  serializedVersion: 2
  m_Scenes:
  - enabled: 1
    path: Assets/Scenes/MainMenu/MainMenu.unity
    guid: 7c269c5f224abe34284a7f01c732d414
  - enabled: 1
    path: Assets/Scenes/RoomScene/RoomScene.unity
    guid: 58c9da3b18133c64f84b3aadd02d6d73
  - enabled: 1
    path: Assets/Scenes/TestScene/TestScene.unity

    guid: a29848c6cbdc245439fd7641ab34b8bc
  m_configObjects:
    com.unity.input.settings: {fileID: 11400000, guid: ffcafc0559691484ab8e8d76845f77ef, type: 2}
