%YAML 1.1
%TAG !u! tag:unity3d.com,2011:
--- !u!1 &1706456546013064263
GameObject:
  m_ObjectHideFlags: 0
  m_CorrespondingSourceObject: {fileID: 0}
  m_PrefabInstance: {fileID: 0}
  m_PrefabAsset: {fileID: 0}
  serializedVersion: 6
  m_Component:
  - component: {fileID: 1706456546013064259}
  - component: {fileID: 1706456546013064261}
  - component: {fileID: 3261997088376806707}
  - component: {fileID: 1240333221}
  m_Layer: 0
  m_Name: NetworkManager
  m_TagString: Untagged
  m_Icon: {fileID: 0}
  m_NavMeshLayer: 0
  m_StaticEditorFlags: 0
  m_IsActive: 1
--- !u!4 &1706456546013064259
Transform:
  m_ObjectHideFlags: 0
  m_CorrespondingSourceObject: {fileID: 0}
  m_PrefabInstance: {fileID: 0}
  m_PrefabAsset: {fileID: 0}
  m_GameObject: {fileID: 1706456546013064263}
  m_LocalRotation: {x: 0, y: 0, z: 0, w: 1}
  m_LocalPosition: {x: 0, y: 0, z: 0}
  m_LocalScale: {x: 1, y: 1, z: 1}
  m_ConstrainProportionsScale: 0
  m_Children: []
  m_Father: {fileID: 0}
  m_RootOrder: 0
  m_LocalEulerAnglesHint: {x: 0, y: 0, z: 0}
--- !u!114 &1706456546013064261
MonoBehaviour:
  m_ObjectHideFlags: 0
  m_CorrespondingSourceObject: {fileID: 0}
  m_PrefabInstance: {fileID: 0}
  m_PrefabAsset: {fileID: 0}
  m_GameObject: {fileID: 1706456546013064263}
  m_Enabled: 1
  m_EditorHideFlags: 0
  m_Script: {fileID: 11500000, guid: 6b0fecffa3f624585964b0d0eb21b18e, type: 3}
  m_Name: 
  m_EditorClassIdentifier: 
  port: 7777
  DualMode: 1
  NoDelay: 1
  Interval: 10
  Timeout: 10000
  RecvBufferSize: 7361536
  SendBufferSize: 7361536
  FastResend: 2
  ReceiveWindowSize: 4096
  SendWindowSize: 4096
  MaxRetransmit: 40
  MaximizeSocketBuffers: 1
  ReliableMaxMessageSize: 297433
  UnreliableMaxMessageSize: 1195
  debugLog: 0
  statisticsGUI: 0
  statisticsLog: 0
--- !u!114 &3261997088376806707
MonoBehaviour:
  m_ObjectHideFlags: 0
  m_CorrespondingSourceObject: {fileID: 0}
  m_PrefabInstance: {fileID: 0}
  m_PrefabAsset: {fileID: 0}
  m_GameObject: {fileID: 1706456546013064263}
  m_Enabled: 1
  m_EditorHideFlags: 0
  m_Script: {fileID: 11500000, guid: 6b74533fc07ee5a46966bf7395551d2b, type: 3}
  m_Name: 
  m_EditorClassIdentifier: 
  enableActiveDiscovery: 1
  BroadcastAddress: 
  serverBroadcastListenPort: 47777
  ActiveDiscoveryInterval: 3
  transport: {fileID: 1706456546013064261}
  OnServerFound:
    m_PersistentCalls:
      m_Calls:
      - m_Target: {fileID: 0}
        m_TargetAssemblyTypeName: ServerListController, Assembly-CSharp
        m_MethodName: OnDiscoveredServer
        m_Mode: 0
        m_Arguments:
          m_ObjectArgument: {fileID: 0}
          m_ObjectArgumentAssemblyTypeName: UnityEngine.Object, UnityEngine
          m_IntArgument: 0
          m_FloatArgument: 0
          m_StringArgument: 
          m_BoolArgument: 0
        m_CallState: 2
  secretHandshake: -1384276456
--- !u!114 &1240333221
MonoBehaviour:
  m_ObjectHideFlags: 0
  m_CorrespondingSourceObject: {fileID: 0}
  m_PrefabInstance: {fileID: 0}
  m_PrefabAsset: {fileID: 0}
  m_GameObject: {fileID: 1706456546013064263}
  m_Enabled: 1
  m_EditorHideFlags: 0
  m_Script: {fileID: 11500000, guid: db09853e5636e21479c4faed542a8a43, type: 3}
  m_Name: 
  m_EditorClassIdentifier: 
  dontDestroyOnLoad: 1
  runInBackground: 1
  autoStartServerBuild: 1
  autoConnectClientBuild: 0
  sendRate: 30
  offlineScene: Assets/Scenes/Menu/MainMenu.unity
  onlineScene: Assets/Scenes/RoomScene/RoomScene.unity
  transport: {fileID: 1706456546013064261}
  networkAddress: localhost
  maxConnections: 100
  authenticator: {fileID: 0}
  playerPrefab: {fileID: 3467741199492038587, guid: 51e6074ccbfb93f4387cc123978c3c94, type: 3}
  autoCreatePlayer: 1
  playerSpawnMethod: 1
  spawnPrefabs: []
  snapshotSettings:
    bufferTimeMultiplier: 2
    catchupNegativeThreshold: -1
    catchupPositiveThreshold: 1
    catchupSpeed: 0.019999999552965164
    slowdownSpeed: 0.03999999910593033
    driftEmaDuration: 1
    dynamicAdjustment: 1
    dynamicAdjustmentTolerance: 1
    deliveryTimeEmaDuration: 2
  timeInterpolationGui: 0
  showRoomGUI: 1
  minPlayers: 1
  roomPlayerPrefab: {fileID: 8646612978964084560, guid: 9bd2b512e3a8d5e4586ef018fb7f83a1, type: 3}
  RoomScene: Assets/Scenes/RoomScene/RoomScene.unity
  GameplayScene: Assets/Scenes/TestScene/TestScene.unity
  _allPlayersReady: 0
  roomSlots: []
  clientIndex: 0
